Point ID,vtkOriginalPointIds,Points_0,Points_1,Points_2,Points_Magnitude,,X_center,Y_center,Z_center
0,25185,9.273788,29.30465,34.11882,45.92232,,9.90761561904762,29.0732419047619,34.2361233333333
1,25715,9.186309,29.01049,34.17348,45.75831,,,,
2,26032,9.505784,29.55178,34.09232,46.10807,,,,
3,26241,10.57084,28.92714,34.32276,46.11479,,,,
4,26517,10.4172,28.65856,34.36084,45.94017,,,,
5,26927,9.827737,29.67734,34.09161,46.25545,,,,
6,28076,10.55942,29.24304,34.25345,46.25965,,,,
7,28377,9.298767,28.70645,34.24168,45.64011,,,,
8,28497,10.15896,28.48069,34.36527,45.77473,,,,
9,28561,9.528393,28.51135,34.29296,45.60367,,,,
10,28765,10.15855,29.6663,34.12199,46.34216,,,,
11,28766,10.42725,29.50982,34.1837,46.34741,,,,
12,29380,9.842909,28.41344,34.34304,45.64702,,,,
13,29402,9.685958,28.75277,34.29584,45.79022,,,,
14,29405,10.10786,28.77769,34.33573,45.92675,,,,
15,29406,9.857968,29.07555,34.2791,46.01765,,,,
16,29410,10.22813,29.13291,34.27684,46.13289,,,,
17,29422,9.491362,29.03324,34.2242,45.87277,,,,
18,29424,10.00013,29.37926,34.19778,46.18043,,,,
19,29433,9.658223,29.33857,34.17533,46.06502,,,,
20,29441,10.27439,29.38704,34.21185,46.25594,,,,
